Apply the taxon QC method of Jervis-Bardy — add_jervis_bardy • tidytacos
…
# we can do this in one step!
plants_jb <- leaf %>%
  add_jervis_bardy(
    dna_conc = Leafweight,
    sample_condition = Plant != "Blank"
)

# show the negative correlations
plants_jb$taxa %>%
  select(taxon_id, starts_with("jb_")) %>%
  filter(jb_cor < 0) %>%
  arrange(jb_p)
#> # A tibble: 409 × 3
#>    taxon_id jb_cor    jb_p
#>    <chr>     <dbl>   <dbl>
#>  1 t256     -0.964 0.00139
#>  2 t133     -0.706 0.00664
#>  3 t21      -0.582 0.0100 
#>  4 t212     -0.886 0.0167 
#>  5 t471     -0.886 0.0167 
#>  6 t30      -0.521 0.0295 
#>  7 t195     -0.533 0.0321 
#>  8 t111     -1     0.0417 
#>  9 t199     -1     0.0417 
#> 10 t279     -1     0.0417 
#> # ℹ 399 more rows
…
