Add clustering-based sample order — add_sample_clustered • tidytacos
…
    Examples

urtc <- urt %>% add_sample_clustered()
urtc$samples %>% dplyr::select(sample_id, sample_clustered)
#> # A tibble: 217 × 2
#>    sample_id sample_clustered
#>    <chr>     <fct>           
#>  1 s1        s1              
#>  2 s2        s2              
#>  3 s3        s3              
#>  4 s4        s4              
#>  5 s5        s5              
#>  6 s6        s6              
#>  7 s7        s7              
#>  8 s8        s8              
#>  9 s9        s9              
#> 10 s10       s10             
#> # ℹ 207 more rows
…
