Network Analysis • tidytacos
…
urt.net.clust %>% filter(cluster == unique(urt.net.clust$cluster)[[4]])
#> # A tibble: 21 × 2
#>    taxon            cluster
#>    <chr>            <chr>  
#>  1 Alloprevotella 3 c33    
#>  2 Campylobacter 2  c33    
#>  3 Fusobacterium 5  c33    
#>  4 Gemella          c33    
#>  5 Granulicatella 1 c33    
#>  6 Granulicatella 2 c33    
#>  7 Haemophilus 3    c33    
#>  8 Leptotrichia 1   c33    
#>  9 Megasphaera 1    c33    
#> 10 Neisseria 2      c33    
#> # ℹ 11 more rows
…
